<?xml version="1.0" encoding="utf-8"?>
<!-- Generator: Adobe Illustrator 24.1.2, SVG Export Plug-In . SVG Version: 6.00 Build 0)  -->
<svg version="1.1" xmlns="http://www.w3.org/2000/svg" xmlns:xlink="http://www.w3.org/1999/xlink" x="0px" y="0px"
	 viewBox="0 0 201 232.1" style="enable-background:new 0 0 201 232.1;" xml:space="preserve">
<style type="text/css">
	.st0{display:none;}
	.st1{display:inline;fill:#F59D1D;}
	.st2{display:inline;fill:#F59D1D;stroke:#FFFFFF;stroke-miterlimit:10;}
	.st3{display:inline;fill:#093C49;stroke:#FFFFFF;stroke-miterlimit:10;}
	.st4{display:inline;fill:#A69E9E;stroke:#093C49;stroke-miterlimit:10;}
	.st5{display:inline;}
	.st6{fill:#FFFFFF;}
	.st7{fill:#093C49;stroke:#FFFFFF;stroke-width:2.5;stroke-linecap:round;stroke-linejoin:round;stroke-miterlimit:10;}
	.st8{fill:none;stroke:#FFFFFF;stroke-width:2.5;stroke-linecap:round;stroke-linejoin:round;stroke-miterlimit:10;}
	.st9{fill:#093C49;stroke:#FFFFFF;stroke-width:2.5;stroke-linecap:round;stroke-linejoin:round;}
	.st10{fill:none;stroke:#FFFFFF;stroke-linecap:round;stroke-linejoin:round;}
	.st11{fill:#093C49;}
	.st12{fill:none;stroke:#FFFFFF;stroke-miterlimit:10;}
	.st13{display:inline;fill:#093C49;stroke:#FFFFFF;stroke-width:2.5;stroke-miterlimit:10;}
	.st14{fill:#093C49;stroke:#FFFFFF;stroke-width:2;stroke-linecap:round;stroke-linejoin:round;stroke-miterlimit:10;}
	.st15{fill:none;stroke:#FFFFFF;stroke-width:2;stroke-linecap:round;stroke-linejoin:round;stroke-miterlimit:10;}
	.st16{fill:none;stroke:#FFFFFF;stroke-width:2;stroke-miterlimit:10;}
	.st17{fill:none;stroke:#FFFFFF;stroke-linecap:round;stroke-linejoin:round;stroke-miterlimit:10;}
	.st18{fill:#093C49;stroke:#FFFFFF;stroke-width:2.5;stroke-miterlimit:10;}
	.st19{fill:none;stroke:#FFFFFF;stroke-width:2.5;stroke-linecap:round;stroke-miterlimit:10;}
	.st20{fill:#093C49;stroke:#FFFFFF;stroke-width:2.5;stroke-linecap:round;stroke-miterlimit:10;}
	.st21{fill:none;stroke:#FFFFFF;stroke-width:2.5;stroke-miterlimit:10;}
	.st22{fill:#F59D1D;stroke:#FFFFFF;stroke-width:2.5;stroke-linecap:round;stroke-linejoin:round;stroke-miterlimit:10;}
	.st23{fill:#093C49;stroke:#FFFFFF;stroke-miterlimit:10;}
	.st24{fill:#093C49;stroke:#FFFFFF;stroke-linecap:round;stroke-linejoin:round;stroke-miterlimit:10;}
	.st25{fill:#093C49;stroke:#FFFFFF;stroke-width:2;stroke-miterlimit:10;}
	.st26{fill:#F59D1D;stroke:#FFFFFF;stroke-width:2;stroke-miterlimit:10;}
	.st27{fill:#F59D1D;stroke:#FFFFFF;stroke-linecap:round;stroke-linejoin:round;stroke-miterlimit:10;}
	.st28{fill:none;stroke:#FFFFFF;stroke-linecap:round;stroke-miterlimit:10;}
	.st29{fill:#F59D1D;}
	.st30{fill:#F59D1D;stroke:#FFFFFF;stroke-miterlimit:10;}
	.st31{fill:#093C49;stroke:#FFFFFF;stroke-linecap:round;stroke-miterlimit:10;}
	.st32{fill:none;stroke:#FFFFFF;stroke-width:1.5;stroke-miterlimit:10;}
	.st33{fill:none;stroke:#FFFFFF;stroke-width:3;stroke-miterlimit:10;}
	.st34{fill:#F59D1D;stroke:#FFFFFF;stroke-width:2.5;stroke-miterlimit:10;}
	.st35{fill:none;stroke:#093C49;stroke-width:2.5;stroke-linecap:round;stroke-linejoin:round;}
	.st36{fill:none;stroke:#093C49;stroke-linecap:round;stroke-linejoin:round;}
	.st37{fill:none;}
	.st38{fill:none;stroke:#093C49;stroke-miterlimit:10;}
	.st39{fill:none;stroke:#093C49;stroke-width:2.5;stroke-miterlimit:10;}
	.st40{fill:none;stroke:#093C49;stroke-width:2;stroke-linecap:round;stroke-linejoin:round;stroke-miterlimit:10;}
	.st41{fill:none;stroke:#093C49;stroke-width:2;stroke-miterlimit:10;}
	.st42{fill:none;stroke:#093C49;stroke-width:2.5;stroke-linecap:round;stroke-linejoin:round;stroke-miterlimit:10;}
	.st43{fill:none;stroke:#093C49;stroke-linecap:round;stroke-linejoin:round;stroke-miterlimit:10;}
	.st44{fill:none;stroke:#093C49;stroke-width:2.5;stroke-linecap:round;stroke-miterlimit:10;}
	.st45{fill:#F39B9E;stroke:#093C49;stroke-miterlimit:10;}
	.st46{fill:none;stroke:#093C49;stroke-linecap:round;stroke-miterlimit:10;}
	.st47{fill:none;stroke:#093C49;stroke-width:1.5;stroke-miterlimit:10;}
	.st48{fill:none;stroke:#093C49;stroke-width:3;stroke-miterlimit:10;}
	.st49{fill:#F59D1D;stroke:#FFFFFF;stroke-width:2.5;stroke-linecap:round;stroke-linejoin:round;}
	.st50{display:inline;fill:#F59D1D;stroke:#FFFFFF;stroke-width:2.5;stroke-miterlimit:10;}
	.st51{fill:#F59D1D;stroke:#FFFFFF;stroke-width:2;stroke-linecap:round;stroke-linejoin:round;stroke-miterlimit:10;}
	.st52{fill:#F59D1D;stroke:#FFFFFF;stroke-width:2.5;stroke-linecap:round;stroke-miterlimit:10;}
	.st53{fill:#F59D1D;stroke:#FFFFFF;stroke-linecap:round;stroke-miterlimit:10;}
</style>
<g id="background_jaune" class="st0">
	<polygon class="st2" points="200.5,173.8 200.5,58.3 100.5,0.6 0.5,58.3 0.5,173.8 100.5,231.5 	"/>
</g>
<g id="background_bleu" class="st0">
	<polygon class="st3" points="200,174.6 200,59.1 100,1.4 0,59.1 0,174.6 100,232.3 	"/>
</g>
<g id="background_gris" class="st0">
	<rect x="-1384.6" class="st4" width="2159.8" height="781"/>
</g>
<g id="Noms" class="st0">
</g>
<g id="NORMAL" class="st0">
	<g class="st5">
		<path class="st7" d="M46.6,71.1v16c0,3.9-1.9,7.4-4.9,9.3c-4.3,2.6-7,7.6-7,13.2v52.5H75v-52.8c-0.1-5.4-2.8-10.5-7.1-13
			c-3-1.9-4.9-5.4-4.9-9.3V71L46.6,71.1z"/>
		<path class="st6" d="M54.9,137.6c-3.4,0-6-2.8-6-6c0-1.7,0.9-3.2,2.4-6.2c1.1-1.7,2.2-3.9,3.4-6.7c1.3,3.2,2.8,5.4,3.9,7.3
			c1.5,2.8,2.4,4.1,2.4,5.6C60.9,134.8,58.3,137.6,54.9,137.6z"/>
		<line class="st8" x1="44" y1="81.5" x2="65.8" y2="81.5"/>
		<path class="st8" d="M51,70.2V59.4c0,0,0-3.5,2.4-5.4c2-1.6,6.1-4,8.1-5.4c0.6-0.4,1.3,0,1.3,0.7v3.9c0,0.7,0,1.6-0.8,2.1
			l-3.2,2.1c-1.2,0.8-2.1,2.1-2.3,3.5c-0.1,0.4-0.1,0.9-0.1,1.5c0.1,1.2,0,7.5,0,7.5"/>
	</g>
	<g class="st5">
		<path class="st21" d="M151.5,138.5c2.3-0.2,4.1-2.2,4.1-4.5c0-2.5-2-4.5-4.5-4.5h-0.2c-0.2-1.1-0.7-2-1.4-2.7
			c-1-0.9-2.3-1.4-3.9-1.4l-0.4,0c-4.8,0.1-5.8,0.1-13.7-4c-5-2.6-10.8-2.5-15.1,0.1c-3,1.8-4.9,4.7-5.2,7.9H111
			c-2.5,0-4.5,2-4.5,4.5c0,2.4,1.8,4.3,4.1,4.5"/>
		<path class="st18" d="M154.3,171.7c-0.7,1.2-2.4,1.5-3.7,1.5h-39.1c-1.3,0-3-0.3-3.7-1.5c-0.9-1.6-0.2-4.6,2.1-8.5
			c0.1-0.2,0.1-0.3,0.2-0.5l1.1-24.4h40l1.1,24.4c0,0.2,0.1,0.4,0.2,0.5C154.5,167.1,155.2,170.1,154.3,171.7z"/>
		<line class="st21" x1="111.1" y1="129.5" x2="150.9" y2="129.5"/>
		<g>
			<path class="st6" d="M130.6,151.2c0.1,0.1,0.2,0.2,0.3,0.2c0.2,0,0.3-0.1,0.4-0.2c0.4-0.5,1-1.3,1-2.4c0-1-0.6-1.9-1-2.3
				c-0.1-0.1-0.2-0.2-0.4-0.2c-0.1,0-0.2,0.1-0.3,0.2c-0.4,0.5-1,1.3-1,2.3C129.6,149.9,130.2,150.8,130.6,151.2z"/>
			<path class="st6" d="M131,154.4c0.1,0,1.8,0.1,2.9-1c0.7-0.7,0.8-1.6,0.9-2.3c0-0.2,0-0.2-0.2-0.3c-0.1-0.2-0.2-0.2-0.3-0.2
				c-0.7,0.1-1.6,0.2-2.4,1s-0.9,1.9-1,2.5c0-0.6-0.2-1.7-1-2.5c-0.7-0.7-1.6-0.8-2.3-0.9c-0.2,0-0.2,0-0.3,0.2
				c-0.2,0.1-0.2,0.2-0.2,0.3c0.1,0.7,0.2,1.6,1,2.4C129.1,154.5,130.9,154.4,131,154.4z"/>
			<path class="st6" d="M131.9,155.3c-0.7,0.7-0.9,2-1,2.5c0-0.6-0.2-1.7-1-2.5c-0.7-0.7-1.6-0.9-2.3-1c-0.2,0-0.2,0-0.3,0.2
				c-0.2,0.1-0.2,0.2-0.2,0.3c0.1,0.7,0.2,1.6,1,2.4c1.1,1.1,2.8,1,2.9,1c0.1,0,1.8,0.1,2.9-1c0.7-0.7,0.9-1.7,1-2.4
				c0-0.2,0-0.2-0.2-0.3c-0.2-0.1-0.3-0.2-0.4-0.2C133.6,154.4,132.6,154.6,131.9,155.3z"/>
			<path class="st6" d="M131.9,159c-0.7,0.7-0.9,2-1,2.5c0-0.6-0.2-1.7-1-2.5c-0.7-0.7-1.7-0.9-2.4-1c-0.2,0-0.2,0-0.4,0.2
				c0,0.1,0,0.2,0,0.4c0.1,0.7,0.2,1.6,1,2.4c0.7,0.7,1.7,0.8,2.3,0.9v2.7c0,0.3,0.2,0.6,0.5,0.6c0.3,0,0.5-0.2,0.5-0.6v-2.7
				c0.7-0.1,1.6-0.2,2.3-1c0.7-0.7,0.9-1.7,1-2.4c0-0.2,0-0.2-0.2-0.3c-0.1-0.1-0.2-0.2-0.4-0.2C133.6,158.1,132.6,158.4,131.9,159z
				"/>
		</g>
	</g>
	<g class="st5">
		<path class="st21" d="M132.2,81.2c0-0.1,0-0.2,0-0.3c0-2.1-1.4-3.8-3.4-4.3c-0.5-1.5-1.7-2.6-3.1-3c-0.4-1.6-1.6-2.8-3.2-3.2
			c-0.5-1.4-1.6-2.4-3-2.8c-0.4-1.5-1.7-2.8-3.2-3.2c-0.6-1.8-2.3-3.1-4.2-3.1c-2,0-3.7,1.3-4.3,3.1c-1.5,0.4-2.7,1.6-3.1,3.1
			c-1.4,0.4-2.5,1.4-3,2.8c-1.5,0.4-2.7,1.7-3.1,3.2c-1.4,0.4-2.6,1.5-3,2.9c-1.9,0.5-3.4,2.2-3.4,4.3c0,0.1,0,0.2,0,0.3h0
			c-0.2,0-0.4,0-0.5,0.1"/>
		<circle class="st6" cx="110.8" cy="68.6" r="1.5"/>
		<circle class="st6" cx="109.7" cy="73.1" r="1.5"/>
		<circle class="st6" cx="105" cy="73.1" r="1.5"/>
		<path class="st7" d="M131.5,81.3c0,10.8-8.7,19.5-19.5,19.5s-19.5-8.7-19.5-19.5H131.5z"/>
		<line class="st8" x1="131.5" y1="81.3" x2="171" y2="81.3"/>
	</g>
</g>
<g id="GRIS">
	<g>
		<path class="st42" d="M46.6,71.1v16c0,3.9-1.9,7.4-4.9,9.3c-4.3,2.6-7,7.6-7,13.2v52.5H75v-52.8c-0.1-5.4-2.8-10.5-7.1-13
			c-3-1.9-4.9-5.4-4.9-9.3V71L46.6,71.1z"/>
		<path class="st11" d="M54.9,137.6c-3.4,0-6-2.8-6-6c0-1.7,0.9-3.2,2.4-6.2c1.1-1.7,2.2-3.9,3.4-6.7c1.3,3.2,2.8,5.4,3.9,7.3
			c1.5,2.8,2.4,4.1,2.4,5.6C60.9,134.8,58.3,137.6,54.9,137.6z"/>
		<line class="st42" x1="44" y1="81.5" x2="65.8" y2="81.5"/>
		<path class="st42" d="M51,70.2V59.4c0,0,0-3.5,2.4-5.4c2-1.6,6.1-4,8.1-5.4c0.6-0.4,1.3,0,1.3,0.7v3.9c0,0.7,0,1.6-0.8,2.1
			l-3.2,2.1c-1.2,0.8-2.1,2.1-2.3,3.5c-0.1,0.4-0.1,0.9-0.1,1.5c0.1,1.2,0,7.5,0,7.5"/>
	</g>
	<g>
		<path class="st39" d="M151.5,138.5c2.3-0.2,4.1-2.2,4.1-4.5c0-2.5-2-4.5-4.5-4.5h-0.2c-0.2-1.1-0.7-2-1.4-2.7
			c-1-0.9-2.3-1.4-3.9-1.4l-0.4,0c-4.8,0.1-5.8,0.1-13.7-4c-5-2.6-10.8-2.5-15.1,0.1c-3,1.8-4.9,4.7-5.2,7.9H111
			c-2.5,0-4.5,2-4.5,4.5c0,2.4,1.8,4.3,4.1,4.5"/>
		<path class="st39" d="M154.3,171.7c-0.7,1.2-2.4,1.5-3.7,1.5h-39.1c-1.3,0-3-0.3-3.7-1.5c-0.9-1.6-0.2-4.6,2.1-8.5
			c0.1-0.2,0.1-0.3,0.2-0.5l1.1-24.4h40l1.1,24.4c0,0.2,0.1,0.4,0.2,0.5C154.5,167.1,155.2,170.1,154.3,171.7z"/>
		<line class="st39" x1="111.1" y1="129.5" x2="150.9" y2="129.5"/>
		<g>
			<path class="st11" d="M130.6,151.2c0.1,0.1,0.2,0.2,0.3,0.2c0.2,0,0.3-0.1,0.4-0.2c0.4-0.5,1-1.3,1-2.4c0-1-0.6-1.9-1-2.3
				c-0.1-0.1-0.2-0.2-0.4-0.2c-0.1,0-0.2,0.1-0.3,0.2c-0.4,0.5-1,1.3-1,2.3C129.6,149.9,130.2,150.8,130.6,151.2z"/>
			<path class="st11" d="M131,154.4c0.1,0,1.8,0.1,2.9-1c0.7-0.7,0.8-1.6,0.9-2.3c0-0.2,0-0.2-0.2-0.3c-0.1-0.2-0.2-0.2-0.3-0.2
				c-0.7,0.1-1.6,0.2-2.4,1s-0.9,1.9-1,2.5c0-0.6-0.2-1.7-1-2.5c-0.7-0.7-1.6-0.8-2.3-0.9c-0.2,0-0.2,0-0.3,0.2
				c-0.2,0.1-0.2,0.2-0.2,0.3c0.1,0.7,0.2,1.6,1,2.4C129.1,154.5,130.9,154.4,131,154.4z"/>
			<path class="st11" d="M131.9,155.3c-0.7,0.7-0.9,2-1,2.5c0-0.6-0.2-1.7-1-2.5c-0.7-0.7-1.6-0.9-2.3-1c-0.2,0-0.2,0-0.3,0.2
				c-0.2,0.1-0.2,0.2-0.2,0.3c0.1,0.7,0.2,1.6,1,2.4c1.1,1.1,2.8,1,2.9,1c0.1,0,1.8,0.1,2.9-1c0.7-0.7,0.9-1.7,1-2.4
				c0-0.2,0-0.2-0.2-0.3c-0.2-0.1-0.3-0.2-0.4-0.2C133.6,154.4,132.6,154.6,131.9,155.3z"/>
			<path class="st11" d="M131.9,159c-0.7,0.7-0.9,2-1,2.5c0-0.6-0.2-1.7-1-2.5c-0.7-0.7-1.7-0.9-2.4-1c-0.2,0-0.2,0-0.4,0.2
				c0,0.1,0,0.2,0,0.4c0.1,0.7,0.2,1.6,1,2.4c0.7,0.7,1.7,0.8,2.3,0.9v2.7c0,0.3,0.2,0.6,0.5,0.6c0.3,0,0.5-0.2,0.5-0.6v-2.7
				c0.7-0.1,1.6-0.2,2.3-1c0.7-0.7,0.9-1.7,1-2.4c0-0.2,0-0.2-0.2-0.3c-0.1-0.1-0.2-0.2-0.4-0.2C133.6,158.1,132.6,158.4,131.9,159z
				"/>
		</g>
	</g>
	<g>
		<path class="st39" d="M132.2,81.2c0-0.1,0-0.2,0-0.3c0-2.1-1.4-3.8-3.4-4.3c-0.5-1.5-1.7-2.6-3.1-3c-0.4-1.6-1.6-2.8-3.2-3.2
			c-0.5-1.4-1.6-2.4-3-2.8c-0.4-1.5-1.7-2.8-3.2-3.2c-0.6-1.8-2.3-3.1-4.2-3.1c-2,0-3.7,1.3-4.3,3.1c-1.5,0.4-2.7,1.6-3.1,3.1
			c-1.4,0.4-2.5,1.4-3,2.8c-1.5,0.4-2.7,1.7-3.1,3.2c-1.4,0.4-2.6,1.5-3,2.9c-1.9,0.5-3.4,2.2-3.4,4.3c0,0.1,0,0.2,0,0.3h0
			c-0.2,0-0.4,0-0.5,0.1"/>
		<circle class="st11" cx="110.8" cy="68.6" r="1.5"/>
		<circle class="st11" cx="109.7" cy="73.1" r="1.5"/>
		<circle class="st11" cx="105" cy="73.1" r="1.5"/>
		<path class="st42" d="M131.5,81.3c0,10.8-8.7,19.5-19.5,19.5s-19.5-8.7-19.5-19.5H131.5z"/>
		<line class="st42" x1="131.5" y1="81.3" x2="171" y2="81.3"/>
	</g>
</g>
<g id="HOVER" class="st0">
	<g class="st5">
		<path class="st22" d="M46.6,71.1v16c0,3.9-1.9,7.4-4.9,9.3c-4.3,2.6-7,7.6-7,13.2v52.5H75v-52.8c-0.1-5.4-2.8-10.5-7.1-13
			c-3-1.9-4.9-5.4-4.9-9.3V71L46.6,71.1z"/>
		<path class="st6" d="M54.9,137.6c-3.4,0-6-2.8-6-6c0-1.7,0.9-3.2,2.4-6.2c1.1-1.7,2.2-3.9,3.4-6.7c1.3,3.2,2.8,5.4,3.9,7.3
			c1.5,2.8,2.4,4.1,2.4,5.6C60.9,134.8,58.3,137.6,54.9,137.6z"/>
		<line class="st8" x1="44" y1="81.5" x2="65.8" y2="81.5"/>
		<path class="st8" d="M51,70.2V59.4c0,0,0-3.5,2.4-5.4c2-1.6,6.1-4,8.1-5.4c0.6-0.4,1.3,0,1.3,0.7v3.9c0,0.7,0,1.6-0.8,2.1
			l-3.2,2.1c-1.2,0.8-2.1,2.1-2.3,3.5c-0.1,0.4-0.1,0.9-0.1,1.5c0.1,1.2,0,7.5,0,7.5"/>
	</g>
	<g class="st5">
		<path class="st21" d="M151.5,138.5c2.3-0.2,4.1-2.2,4.1-4.5c0-2.5-2-4.5-4.5-4.5h-0.2c-0.2-1.1-0.7-2-1.4-2.7
			c-1-0.9-2.3-1.4-3.9-1.4l-0.4,0c-4.8,0.1-5.8,0.1-13.7-4c-5-2.6-10.8-2.5-15.1,0.1c-3,1.8-4.9,4.7-5.2,7.9H111
			c-2.5,0-4.5,2-4.5,4.5c0,2.4,1.8,4.3,4.1,4.5"/>
		<path class="st34" d="M154.3,171.7c-0.7,1.2-2.4,1.5-3.7,1.5h-39.1c-1.3,0-3-0.3-3.7-1.5c-0.9-1.6-0.2-4.6,2.1-8.5
			c0.1-0.2,0.1-0.3,0.2-0.5l1.1-24.4h40l1.1,24.4c0,0.2,0.1,0.4,0.2,0.5C154.5,167.1,155.2,170.1,154.3,171.7z"/>
		<line class="st21" x1="111.1" y1="129.5" x2="150.9" y2="129.5"/>
		<g>
			<path class="st6" d="M130.6,151.2c0.1,0.1,0.2,0.2,0.3,0.2c0.2,0,0.3-0.1,0.4-0.2c0.4-0.5,1-1.3,1-2.4c0-1-0.6-1.9-1-2.3
				c-0.1-0.1-0.2-0.2-0.4-0.2c-0.1,0-0.2,0.1-0.3,0.2c-0.4,0.5-1,1.3-1,2.3C129.6,149.9,130.2,150.8,130.6,151.2z"/>
			<path class="st6" d="M131,154.4c0.1,0,1.8,0.1,2.9-1c0.7-0.7,0.8-1.6,0.9-2.3c0-0.2,0-0.2-0.2-0.3c-0.1-0.2-0.2-0.2-0.3-0.2
				c-0.7,0.1-1.6,0.2-2.4,1s-0.9,1.9-1,2.5c0-0.6-0.2-1.7-1-2.5c-0.7-0.7-1.6-0.8-2.3-0.9c-0.2,0-0.2,0-0.3,0.2
				c-0.2,0.1-0.2,0.2-0.2,0.3c0.1,0.7,0.2,1.6,1,2.4C129.1,154.5,130.9,154.4,131,154.4z"/>
			<path class="st6" d="M131.9,155.3c-0.7,0.7-0.9,2-1,2.5c0-0.6-0.2-1.7-1-2.5c-0.7-0.7-1.6-0.9-2.3-1c-0.2,0-0.2,0-0.3,0.2
				c-0.2,0.1-0.2,0.2-0.2,0.3c0.1,0.7,0.2,1.6,1,2.4c1.1,1.1,2.8,1,2.9,1c0.1,0,1.8,0.1,2.9-1c0.7-0.7,0.9-1.7,1-2.4
				c0-0.2,0-0.2-0.2-0.3c-0.2-0.1-0.3-0.2-0.4-0.2C133.6,154.4,132.6,154.6,131.9,155.3z"/>
			<path class="st6" d="M131.9,159c-0.7,0.7-0.9,2-1,2.5c0-0.6-0.2-1.7-1-2.5c-0.7-0.7-1.7-0.9-2.4-1c-0.2,0-0.2,0-0.4,0.2
				c0,0.1,0,0.2,0,0.4c0.1,0.7,0.2,1.6,1,2.4c0.7,0.7,1.7,0.8,2.3,0.9v2.7c0,0.3,0.2,0.6,0.5,0.6c0.3,0,0.5-0.2,0.5-0.6v-2.7
				c0.7-0.1,1.6-0.2,2.3-1c0.7-0.7,0.9-1.7,1-2.4c0-0.2,0-0.2-0.2-0.3c-0.1-0.1-0.2-0.2-0.4-0.2C133.6,158.1,132.6,158.4,131.9,159z
				"/>
		</g>
	</g>
	<g class="st5">
		<path class="st21" d="M132.2,81.2c0-0.1,0-0.2,0-0.3c0-2.1-1.4-3.8-3.4-4.3c-0.5-1.5-1.7-2.6-3.1-3c-0.4-1.6-1.6-2.8-3.2-3.2
			c-0.5-1.4-1.6-2.4-3-2.8c-0.4-1.5-1.7-2.8-3.2-3.2c-0.6-1.8-2.3-3.1-4.2-3.1c-2,0-3.7,1.3-4.3,3.1c-1.5,0.4-2.7,1.6-3.1,3.1
			c-1.4,0.4-2.5,1.4-3,2.8c-1.5,0.4-2.7,1.7-3.1,3.2c-1.4,0.4-2.6,1.5-3,2.9c-1.9,0.5-3.4,2.2-3.4,4.3c0,0.1,0,0.2,0,0.3h0
			c-0.2,0-0.4,0-0.5,0.1"/>
		<circle class="st6" cx="110.8" cy="68.6" r="1.5"/>
		<circle class="st6" cx="109.7" cy="73.1" r="1.5"/>
		<circle class="st6" cx="105" cy="73.1" r="1.5"/>
		<path class="st22" d="M131.5,81.3c0,10.8-8.7,19.5-19.5,19.5s-19.5-8.7-19.5-19.5H131.5z"/>
		<line class="st8" x1="131.5" y1="81.3" x2="171" y2="81.3"/>
	</g>
</g>
</svg>
