<svg width="290" height="32" viewBox="0 0 290 32" fill="none" xmlns="http://www.w3.org/2000/svg">
<g clip-path="url(#clip0)">
<path d="M0 18.0358C0.547342 16.6484 0.942644 15.1706 1.67243 13.9038C4.2267 9.50046 10.4907 7.84165 14.9303 10.3751C15.7209 10.8275 16.0554 10.3148 16.6331 10.2243C17.9102 10.0735 19.2482 10.164 20.6165 10.164C20.6165 17.4628 20.6165 24.6107 20.6165 31.8492C19.1266 31.8492 17.6974 31.8492 16.1466 31.8492C16.1162 31.1555 16.0858 30.5221 16.0554 30.1904C14.1093 30.5825 12.1936 31.2761 10.2475 31.3063C5.07812 31.4269 1.48999 28.3808 0.304079 23.344C0.243263 23.0726 0.0912237 22.8011 0 22.5297C0 21.0518 0 19.5438 0 18.0358ZM16.0858 20.0264C16.025 18.066 15.7817 15.8039 13.4707 14.5071C10.734 12.9689 6.78096 13.9642 5.44301 16.4675C3.64895 19.8756 4.77404 24.9123 7.60197 26.2394C7.78442 26.3299 7.96687 26.3902 8.17972 26.4505C12.7409 27.9887 16.0858 25.4251 16.0858 20.0264Z" fill="black"/>
<path d="M31.1681 30.0094C31.1073 30.6729 31.0769 31.246 31.016 31.8794C29.5565 31.8794 28.0969 31.8794 26.5461 31.8794C26.5461 21.2931 26.5461 10.7069 26.5461 0.0301514C27.9753 0.0301514 29.4044 0.0301514 31.0464 0.0301514C31.0464 3.5589 31.0464 7.08765 31.0464 10.8275C34.3609 9.13854 37.645 8.62582 40.8986 9.92271C42.6014 10.6164 44.3347 11.7625 45.4902 13.18C48.531 16.95 48.3789 23.8567 45.4902 27.6268C42.5102 31.5174 37.5233 32.3619 31.1681 30.0094ZM37.1888 26.8124C40.5945 26.8124 42.6014 25.0933 42.9359 21.7154C43.0271 20.7804 43.0271 19.8153 42.9359 18.8803C42.6318 15.8341 40.8682 14.115 37.8882 13.8435C34.6042 13.5419 32.354 14.9896 31.5026 17.9152C30.043 22.8011 32.5972 26.7823 37.1888 26.8124Z" fill="black"/>
<path d="M156.236 10.918C156.236 7.11781 156.236 3.61923 156.236 0C157.756 0 159.185 0 160.736 0C160.736 10.5561 160.736 21.1423 160.736 31.8492C159.277 31.8492 157.817 31.8492 156.297 31.8492C156.266 31.2158 156.236 30.6126 156.175 29.9189C155.932 29.9793 155.688 30.0094 155.506 30.0999C149.424 33.4779 142.187 30.3713 140.667 23.6155C139.724 19.3629 140.18 15.2912 143.404 11.9736C146.262 9.01791 151.583 8.38454 155.202 10.4053C155.476 10.5561 155.719 10.6466 156.236 10.918ZM156.266 20.2978C156.357 20.2677 156.449 20.2375 156.54 20.2074C156.053 18.7295 155.84 17.0405 154.989 15.7738C153.59 13.6626 151.31 13.5419 148.999 14.0245C146.688 14.5071 145.441 16.0754 145.076 18.2771C144.894 19.4533 144.863 20.6899 144.985 21.8662C145.319 25.1235 147.265 26.7823 150.519 26.8124C153.833 26.8426 155.658 25.2743 156.084 21.9566C156.175 21.4138 156.205 20.8407 156.266 20.2978Z" fill="black"/>
<path d="M87.1794 31.9095C85.7198 31.9095 84.3211 31.9095 82.8007 31.9095C82.7399 31.246 82.6791 30.5825 82.5878 29.7078C80.0032 31.5476 77.2056 31.7587 74.3777 31.1555C69.2388 30.0396 66.2892 25.787 66.5021 20.0264C66.6541 15.5928 68.1745 11.9133 72.5532 10.1037C75.8981 8.7163 79.2734 8.80678 81.7972 10.4354C83.9562 10.3148 85.5374 10.2243 87.2098 10.1338C87.1794 17.4024 87.1794 24.5806 87.1794 31.9095ZM71.1241 20.328C71.1241 25.0933 73.8608 27.5061 78.3003 26.722C80.9762 26.2394 82.4966 24.2488 82.679 20.9915C82.8919 17.312 81.6148 14.8991 79.0605 14.115C74.4385 12.7276 71.1241 15.3515 71.1241 20.328Z" fill="black"/>
<path d="M186.218 31.9095C184.728 31.9095 183.299 31.9095 181.778 31.9095C181.718 31.246 181.657 30.6126 181.596 30.0094C180.258 30.4618 178.981 31.1555 177.643 31.2761C170.436 32.0603 165.388 27.1442 165.784 19.8454C166.088 14.1451 168.703 10.7069 173.751 9.50047C176.122 8.95758 178.464 9.04806 180.653 10.3148C181.049 10.5259 181.718 10.1942 182.265 10.164C183.542 10.1338 184.789 10.164 186.187 10.164C186.218 17.4024 186.218 24.5806 186.218 31.9095ZM181.687 20.2073C181.657 19.5438 181.626 18.7898 181.535 18.0358C181.292 16.2564 180.38 14.9293 178.707 14.2356C174.815 12.607 171.044 14.7785 170.558 18.9105C170.436 19.9057 170.467 20.9312 170.588 21.8963C170.984 25.2139 173.021 26.8728 176.518 26.7521C179.68 26.6616 181.413 24.9123 181.657 21.6249C181.626 21.2328 181.657 20.7804 181.687 20.2073Z" fill="black"/>
<path d="M260.322 29.8285C255.244 32.3921 250.257 31.6381 247.064 27.9887C243.263 23.6456 243.293 13.2404 250.257 10.2545C253.358 8.92746 256.521 8.65601 259.562 10.4958C259.775 10.6164 260.018 10.7371 260.231 10.7069C261.751 10.4958 263.271 10.2243 264.974 9.9529C264.974 17.4628 264.974 24.6108 264.974 31.8794C263.515 31.8794 262.055 31.8794 260.535 31.8794C260.474 31.2159 260.383 30.5825 260.322 29.8285ZM260.352 20.3883C260.383 20.3883 260.383 20.3883 260.413 20.3883C260.352 19.6343 260.352 18.8803 260.261 18.1263C260.018 16.3469 259.166 15.0198 257.464 14.296C253.602 12.6372 249.77 14.7484 249.253 18.8502C249.132 19.8756 249.132 20.9614 249.284 21.9868C249.679 25.2743 251.747 26.903 255.274 26.7823C258.406 26.6617 260.139 24.8822 260.322 21.5948C260.383 21.2027 260.352 20.7804 260.352 20.3883Z" fill="black"/>
<path d="M135.285 10.1941C135.285 17.5532 135.285 24.6711 135.285 31.8793C133.764 31.8793 132.335 31.8793 130.815 31.8793C130.784 31.1857 130.754 30.5523 130.723 29.9793C129.355 30.4317 128.078 31.1253 126.74 31.2761C119.442 32.1206 114.364 27.2347 114.729 19.8454C115.003 14.1753 117.648 10.6767 122.726 9.50046C125.128 8.92741 127.622 8.92741 129.72 10.4354C130.571 11.0386 130.845 10.1338 131.423 10.164C132.67 10.2243 133.916 10.1941 135.285 10.1941ZM130.723 20.0867C130.693 18.2771 130.571 16.0754 128.443 14.7483C126.345 13.4213 124.064 13.4514 121.936 14.6579C119.321 16.1659 119.199 18.7898 119.381 21.4137C119.533 23.7059 120.385 25.6362 122.757 26.4807C127.318 28.049 130.693 25.4854 130.723 20.0867Z" fill="black"/>
<path d="M111.475 14.8087C110.107 15.4421 108.83 16.0151 107.492 16.6485C105.728 13.9039 103.144 13.3912 100.194 14.115C99.8899 14.1753 99.6162 14.2658 99.3426 14.4166C96.4234 15.9849 96.2714 18.6994 96.4538 21.4741C96.6363 24.2488 98.0046 25.968 100.376 26.6013C103.174 27.3553 105.576 26.5712 107.218 24.3393C107.279 24.2488 107.34 24.1885 107.553 23.9774C108.191 24.2488 108.86 24.5504 109.529 24.8822C110.168 25.1838 110.806 25.4552 111.597 25.8172C110.077 29.0443 107.522 30.7936 104.117 31.2762C98.9777 32 94.903 30.0094 92.9265 25.9378C90.7371 21.3836 91.6493 15.0801 94.9942 11.8831C99.7987 7.2988 108.769 8.77665 111.475 14.8087Z" fill="black"/>
<path d="M285.956 23.9774C287.294 24.5806 288.571 25.1537 290 25.8172C288.48 29.0745 285.895 30.8238 282.489 31.2762C275.343 32.2413 270.448 28.0792 270.235 20.9312C270.204 19.4835 270.296 17.9755 270.661 16.6183C271.755 12.607 274.37 10.0434 278.536 9.41002C282.672 8.77665 286.412 9.68146 289.088 13.2404C289.422 13.6626 289.635 14.1753 289.97 14.7484C288.571 15.4119 287.294 15.9849 285.895 16.6183C284.131 13.9039 281.577 13.361 278.627 14.0849C278.293 14.1753 277.928 14.2658 277.624 14.4468C274.766 16.0754 274.674 18.82 274.857 21.5646C275.039 24.2488 276.438 25.9378 278.749 26.541C281.547 27.295 283.949 26.5109 285.591 24.279C285.682 24.2488 285.773 24.1885 285.956 23.9774Z" fill="black"/>
<path d="M207.96 10.2846C212.734 9.92271 212.734 9.92271 214.254 14.115C215.592 17.8247 216.93 21.5646 218.42 25.606C220.062 21.1423 221.582 17.0405 223.072 12.9086C224.076 10.1942 224.076 10.1942 227.025 10.1942C227.633 10.1942 228.211 10.1942 228.971 10.1942C227.846 13.2102 226.782 16.0754 225.718 18.9406C224.258 22.8916 222.768 26.8426 221.339 30.7936C221.065 31.5777 220.7 31.9698 219.758 32C215.957 32.0302 215.957 32.0603 214.649 28.5014C212.46 22.4694 210.24 16.4373 207.96 10.2846Z" fill="black"/>
<path d="M236.665 31.8794C235.053 31.8794 233.654 31.8794 232.134 31.8794C232.134 24.7012 232.134 17.5533 232.134 9.95289C233.685 10.1942 235.235 10.4958 236.756 10.6767C237.09 10.7069 237.486 10.4656 237.85 10.345C239.28 9.89257 240.678 9.44016 242.32 8.89728C242.32 10.7069 242.32 12.1244 242.32 13.6928C242.016 13.7531 241.682 13.7832 241.347 13.8436C238.671 14.3261 237.029 15.8341 236.847 18.5787C236.634 21.9265 236.695 25.3044 236.634 28.6522C236.665 29.7078 236.665 30.7031 236.665 31.8794Z" fill="black"/>
<path d="M57.1668 31.8794C55.616 31.8794 54.2173 31.8794 52.6969 31.8794C52.6969 24.7012 52.6969 17.5231 52.6969 9.95287C54.2781 10.1941 55.7681 10.4656 57.2885 10.6466C57.5925 10.6767 57.927 10.4053 58.2311 10.3148C59.7211 9.86239 61.1807 9.44014 62.8531 8.95758C62.8531 10.737 62.8531 12.1847 62.8531 13.6324C62.0017 13.8435 61.0894 13.9642 60.2684 14.3261C57.8662 15.4119 57.2276 17.5532 57.1972 19.9359C57.1364 23.344 57.1668 26.7521 57.1668 30.1904C57.1668 30.7333 57.1668 31.2761 57.1668 31.8794Z" fill="black"/>
<path d="M195.219 4.01128C194.762 5.85106 194.458 7.44955 193.972 8.95756C193.85 9.34964 193.09 9.83221 192.725 9.77189C188.985 9.04804 189.532 9.40996 190.293 6.33362C190.384 5.94154 190.475 5.54946 190.566 5.15737C191.235 2.41279 191.783 2.11119 194.458 3.22712C194.823 3.37792 195.036 3.83032 195.219 4.01128Z" fill="#FA9D10"/>
</g>
<defs>
<clipPath id="clip0">
<path d="M0 0H290V32H0V0Z" fill="white"/>
</clipPath>
</defs>
</svg>
